{
    "Port": "8080",
    "IP": "0.0.0.0",
    "Logfile": "akabox.log",
    "Login": "toto",
    "Password": "tutu",
    "APIVersion": "1.35",
    "TLScrt": "tls/server.crt",
    "TLSprivkey": "tls/server.key",
    "JWTprivkey": "jwt/akabox.priv",
    "JWTpubkey": "jwt/akabox.pub"
}
